exp_name,oof_score
tf_efficientnet_b3_ns_20bs_512res_specialaugs_ls005_shedchanged_swa_roc_auc_flips_transp,0.9374151911519928
rexnet_200_18bs_512res_specialaugs_ls005_shedchanged_swa_roc_auc_flips_transp,0.9371415478382784
tf_efficientnet_b5_ns_32bs_640res_qubvelaugs_ls005_shedchanged_smallerler_swa_roc_auc_flips_transp,0.9343383145886937
tf_efficientnet_b5_ns_32bs_640res_qubvelaugs_ls005_shedchanged_startpoint_difflrs_swa_roc_auc_flips_transp,0.9523332968679118
resnet200d_40bs_640res_qubvelaugs_ls005_shedchanged_startpoint_difflrs_swa_roc_auc_flips_transp,0.955078892115147
timm_efficientnet_b5_unet_24bs_640res_qubvelaugs_ls005_shedchanged_startpoint_difflrs_segbranch_113coefs_swa_roc_auc_flips_transp,0.9541162822862412
timm_efficientnet_b5_unet_24bs_640res_qubvelaugs_ls005_shedchanged_startpoint_difflrs_segbranch_113coefs_best_roc_auc_flips_transp,0.9510437930713924
timm_efficientnet_b5_unet_24bs_640res_qubvelaugs_ls005_shedchanged_startpoint_difflrs_segbranch_113coefs_1e4noseg_bigholes_best_roc_auc_flips_transp_rots,0.9533208563298844
timm_efficientnet_b5_unet_24bs_640res_qubvelaugs_ls005_shedchanged_startpoint_difflrs_segbranch_113coefs_1e4noseg_bigholes_swa_roc_auc_flips_transp_rots,0.955660346387978
densenet121_unet_52bs_640res_qubvelaugs_rotaugs_ls005_shedchanged_startpoint_difflrs_segbranch_124coefs_1e4noseg_swa_roc_auc_flips_transp_rots,0.8918235752035995
timm_efficientnet_b5_unet_24bs_640res_qubvelaugs_ls005_shedchanged_startpoint_difflrs_segbranch_113coefs_1e4noseg_bigholes_pseudo_swa_roc_auc_flips_transp_rots,0.9557480112198384
timm_efficientnet_b5_unet_24bs_640res_qubvelaugs_ls005_shedchanged_startpoint_difflrs_segbranch_113coefs_1e4noseg_bigholes_pseudo_best_roc_auc_flips_transp_rots,0.9550496415587236
timm_efficientnet_b5_unet_24bs_640res_qubvelaugs_ls005_shedchanged_startpoint_difflrs_segbranch_113coefs_1e4noseg_bigholes_selected2steppseudo_swa_roc_auc_flips_transp_rots,0.9546273549791574
